{
    "torneo": {
        "equipo": "Equip",
        "integrantes": "Integrants de l'equip",
        "ganadas": "Partides guanyades",
        "perdidas": "Partides perdudes",
        "puntos": "Punts",
        "subtitle": "I Torneig de Botifarra",
        "extra" :
            {
                "Guanyar son 10100 - punts dels contrincants punts": "Perdre són 1000 + punts obtinguts",
                "Maxiiics-Vius": "76-102",
                "Maki de Ari-Alejandro i Erik": "101-38",
                "Maxiiiics-Maki de Ari": "103-24",
                "UPC1-Martiona": "2-106",
                "Maki de Ari-Vius": "10?-32",
                "Maxiics  - Alejandro i Erik": "101-97",
                "Martiona - papi y mami" :  "38-106"
            },
        "ligas": 
            [
                {
                    "equipos":
                        [
                            {
								"equipo": "Mami y Papi",
								"integrantes": "Miguel Cidrás i Jon Liberal",
								"ganadas": 1,
								"perdidas": 0,
								"puntos": 1050
                            },
                            {
								"equipo": "UPC1",
								"integrantes": "Ernesto Lanchares i Miquel Ortega",
								"ganadas": 0,
								"perdidas": 1,
								"puntos": 1002
                            },
                            {
								"equipo": "Pistachos",
								"integrantes": "Laura Noria i Maria Vivó",
								"ganadas": 0,
								"perdidas": 0,
								"puntos": 0
                            },
                            {
								"equipo": "Solo cau",
								"integrantes": "Jordi Massó i Albert Garcia",
								"ganadas": 0,
								"perdidas": 0,
								"puntos": 0
                            },
                            {
								"equipo": "Martiona",
								"integrantes": "Mariona González i Marta Altarriba",
								"ganadas": 1,
								"perdidas": 1,
								"puntos": 10098
                            }
                        ]
                },
                {
                    "equipos":
                        [
                            {
								"equipo": "Vius",
								"integrantes": "Jordi Castellví i Oscar Benedito",
								"ganadas": 1,
								"perdidas": 1,
								"puntos": 11054
                            },
                            {
								"equipo": "Maxiiics",
								"integrantes": "Zoé Meini i Albert Cheto ",
								"ganadas": 2,
								"perdidas": 1,
								"puntos": 21103
                            },
                            {
								"equipo": "Maki de Ari",
								"integrantes": "Marc Esquerrà i Ariadna Albó",
								"ganadas": 2,
								"perdidas": 1,
								"puntos": 21154
                            },
                            {
								"equipo": "Alejandro i Erik",
								"integrantes": "Alejandro Martos i Erik Ferrando",
								"ganadas": 0,
								"perdidas": 2,
								"puntos": 2135
                            }
                        ]
                }
            ]
    }
}
