{
    "torneo": {
        "title": "Final",
        "subtitle": "I Torneig de Botifarra",
        "rondas": 
            [
                {
                    "name": "Semifinal",
                    "partidas":
                        [
                            {
                                "player1": "",
                                "player1long": "",
                                "player2": "",
                                "player2long": "",
                                "points1": -1,
                                "points2": -1
                            },
                            {
                                "player1": "",
                                "player1long": "",
                                "player2": "",
                                "player2long": "",
                                "points1": -1,
                                "points2": -1
                            }
                        ]
                },
                {
                    "name": "Tercer i quart lloc",
                    "partidas":
                        [
                            {
                                "player1": "",
                                "player1long": "",
                                "player2": "",
                                "player2long": "",
                                "points1": -1,
                                "points2": -1
                            }
                        ]
                },
                {
                    "name": "Final",
                    "partidas":
                        [
                            {
                                "player1": "",
                                "player1long": "",
                                "player2": "",
                                "player2long": "",
                                "points1": -1,
                                "points2": -1
                            }
                        ]
                }
            ]
    }
}
