{
    "section2": {
        "title": "Avisos",
        "text": "",
        "alerts":
            [
                {
                    "title": "Convocatoria final y tercer y cuarto puesto",
                    "text":
                        [
                            "La final del torneo y la partida para el tercer y cuarto puesto serán el viernes 21/12/2018 a las 17h."
                        ]
                }
            ],
        "old_alerts":
            [
                {
                    "title": "Cuartos de final hasta el 17/12/2018",
                    "text":
                        [
                            "¡Ya podéis comenzar los cuartos de final! Tenéis hasta el lunes 17 de diciembre (incluido) para comunicarnos el resultado. Si no podéis contactar con vuestros contrincantes nosotros tenemos un número de teléfono de cada pareja, pedidnoslo. Recordamos que la partida es a una vaca al mejor de cinco juegos.",
                            "Si todavía no tenéis contrincantes, los sabréis el viernes."
                        ]
                },
                {
                    "title": "Octavos de final hasta el 13/12/2018",
                    "text":
                        [
                            "¡Ya podéis comenzar los octavos de final! Tenéis hasta el 13 de diciembre (incluido) para comunicarnos el resultado. Si no podéis contactar con vuestros contrincantes nosotros tenemos un número de teléfono de cada pareja, pedidnoslo. Recordamos que la partida es a una vaca al mejor de tres juegos.",
                            "Si todavía no tenéis contrincantes, los sabréis el lunes (excepto los del partido Martina Jana vs David Jordi, que se jugará martes)."
                        ]
                },
                {
                    "title": "Ronda eliminatoria, hasta el 6/12/2018",
                    "text":
                        [
                            "¡Ya podéis comenzar la ronda eliminatoria! Tenéis hasta el 6 de diciembre (incluido) para comunicarnos el resultado. Si no podéis contactar con vuestros contrincantes nosotros tenemos un número de teléfono de cada pareja, pedidnoslo. Recordamos que la partida es a una vaca al mejor de tres juegos."
                        ]
                },
                {
                    "title": "Typos en la web",
                    "text":
                        [
                            "Si encontráis algún typo en vuestros nombres hacednoslo saber."
                        ]
                },
                {
                    "title": "Periodo de inscripciones cerrado",
                    "text":
                        [
                            "Ya no se pueden hacer más inscripciones al torneo."
                        ]
                },
                {
                    "title": "Nombres en la web",
                    "text":
                        [
                            "Si no quereis que aparezcan vuestros nombres en la web, teneis hasta el sábado 1 de diciembre para darnos un pseudónimo para vuestro equipo."
                        ]
                },
                {
                    "title": "Periodo de inscripciones extendido",
                    "text":
                        [
                            "Hemos  extendido el periodo de inscripciones, podeis inscribiros hasta el sábado 1  de diciembre por la web."
                        ]
                }
            ]
    }
}
